<?xml version="1.0" encoding="utf-8"?>
<!-- Generator: Adobe Illustrator 16.0.0, SVG Export Plug-In . SVG Version: 6.00 Build 0)  -->
<!DOCTYPE svg PUBLIC "-//W3C//DTD SVG 1.1//EN" "http://www.w3.org/Graphics/SVG/1.1/DTD/svg11.dtd">
<svg version="1.1" id="Layer_1" xmlns="http://www.w3.org/2000/svg" xmlns:xlink="http://www.w3.org/1999/xlink" x="0px" y="0px"
	 width="190.153px" height="412px" viewBox="0 0 190.153 412" enable-background="new 0 0 190.153 412" xml:space="preserve">
<g>
	<defs>
		<rect id="SVGID_1_" width="190.153" height="412"/>
	</defs>
	<clipPath id="SVGID_2_">
		<use xlink:href="#SVGID_1_"  overflow="visible"/>
	</clipPath>
	<path clip-path="url(#SVGID_2_)" fill="#FFFFFF" d="M43.144,134.692H0v70.426h43.144V412h82.965V204.238h57.882l6.162-69.546
		h-64.044V95.077c0-16.398,3.302-22.89,19.146-22.89h44.896V0h-57.441C70.977,0,43.144,27.179,43.144,79.231
		C43.144,124.566,43.144,134.692,43.144,134.692"/>
</g>
</svg>
